{
  "project_info": {
    "project_number": "635150945675",
    "firebase_url": "https://alcoludo.firebaseio.com",
    "project_id": "alcoludo",
    "storage_bucket": "alcoludo.appspot.com"
  },
  "client": [
    {
      "client_info": {
        "mobilesdk_app_id": "1:635150945675:android:a1b6ad1453f7ce0f",
        "android_client_info": {
          "package_name": "com.agred.alcoludo"
        }
      },
      "oauth_client": [
        {
          "client_id": "635150945675-sc8m0kv22thl73k8ehkitvt9tm4lkdc9.apps.googleusercontent.com",
          "client_type": 1,
          "android_info": {
            "package_name": "com.agred.alcoludo",
            "certificate_hash": "1FF40679AE6752B4C70F27DAB53E2A6C355225A9"
          }
        },
        {
          "client_id": "635150945675-drikj726dt8uq249on7e0a73ec174dhh.apps.googleusercontent.com",
          "client_type": 3
        }
      ],
      "api_key": [
        {
          "current_key": "AIzaSyDsJ0oF_10lWHEhxbNOShdCyr_eL1A0MT0"
        }
      ],
      "services": {
        "analytics_service": {
          "status": 1
        },
        "appinvite_service": {
          "status": 2,
          "other_platform_oauth_client": [
            {
              "client_id": "635150945675-drikj726dt8uq249on7e0a73ec174dhh.apps.googleusercontent.com",
              "client_type": 3
            }
          ]
        },
        "ads_service": {
          "status": 2
        }
      }
    }
  ],
  "configuration_version": "1"
}